…
litters_data = read_csv("./data/FAS_litters.csv", col_types = "ccddiiii")
litters_data = janitor::clean_names(litters_data)

pups_data = read_csv("./data/FAS_pups.csv", col_types = "ciiiii")
pups_data = janitor::clean_names(pups_data)
```

# Select

``` r
select(litters_data, group, litter_number, gd0_weight, pups_born_alive)
```

    ## # A tibble: 49 x 4
    ##   group litter_number gd0_weight pups_born_alive
    ##   <chr> <chr>              <dbl>           <int>
    ## 1 Con7  #85                 19.7               3
    ## 2 Con7  #1/2/95/2           27                 8
    ## 3 Con7  #5/5/3/83/3-3       26                 6
    ## # ... with 46 more rows

``` r
select(litters_data, group:gd_of_birth)
```

    ## # A tibble: 49 x 5
    ##   group litter_number gd0_weight gd18_weight gd_of_birth
    ##   <chr> <chr>              <dbl>       <dbl>       <int>
    ## 1 Con7  #85                 19.7        34.7          20
    ## 2 Con7  #1/2/95/2           27          42            19
    ## 3 Con7  #5/5/3/83/3-3       26          41.4          19
    ## # ... with 46 more rows

``` r
select(litters_data, -pups_survive)
```

    ## # A tibble: 49 x 7
    ##   group litter_number gd0_weight gd18_weight gd_of_birth pups_born_alive
    ##   <chr> <chr>              <dbl>       <dbl>       <int>           <int>
    ## 1 Con7  #85                 19.7        34.7          20               3
    ## 2 Con7  #1/2/95/2           27          42            19               8
    ## 3 Con7  #5/5/3/83/3-3       26          41.4          19               6
    ## # ... with 46 more rows, and 1 more variable: pups_dead_birth <int>

``` r
select(litters_data, GROUP = group, LITTER_NUMBER = litter_number)
```

    ## # A tibble: 49 x 2
    ##   GROUP LITTER_NUMBER
    ##   <chr> <chr>        
    ## 1 Con7  #85          
    ## 2 Con7  #1/2/95/2    
    ## 3 Con7  #5/5/3/83/3-3
    ## # ... with 46 more rows

``` r
rename(litters_data, GROUP= group, LiTtEr_NuMbEr = litter_number)
```

    ## # A tibble: 49 x 8
    ##   GROUP LiTtEr_NuMbEr gd0_weight gd18_weight gd_of_birth pups_born_alive
    ##   <chr> <chr>              <dbl>       <dbl>       <int>           <int>
    ## 1 Con7  #85                 19.7        34.7          20               3
    ## 2 Con7  #1/2/95/2           27          42            19               8
    ## 3 Con7  #5/5/3/83/3-3       26          41.4          19               6
    ## # ... with 46 more rows, and 2 more variables: pups_dead_birth <int>,
    ## #   pups_survive <int>

``` r
select(litters_data, starts_with("gd"))
```

    ## # A tibble: 49 x 3
    ##   gd0_weight gd18_weight gd_of_birth
    ##        <dbl>       <dbl>       <int>
    ## 1       19.7        34.7          20
    ## 2       27          42            19
    ## 3       26          41.4          19
    ## # ... with 46 more rows

``` r
select(litters_data, litter_number, pups_survive, everything())
```

    ## # A tibble: 49 x 8
    ##   litter_number pups_survive group gd0_weight gd18_weight gd_of_birth
    ##   <chr>                <int> <chr>      <dbl>       <dbl>       <int>
    ## 1 #85                      3 Con7        19.7        34.7          20
    ## 2 #1/2/95/2                7 Con7        27          42            19
    ## 3 #5/5/3/83/3-3            5 Con7        26          41.4          19
    ## # ... with 46 more rows, and 2 more variables: pups_born_alive <int>,
    ## #   pups_dead_birth <int>

``` r
relocate(litters_data, litter_number, pups_survive)
```

    ## # A tibble: 49 x 8
    ##   litter_number pups_survive group gd0_weight gd18_weight gd_of_birth
    ##   <chr>                <int> <chr>      <dbl>       <dbl>       <int>
    ## 1 #85                      3 Con7        19.7        34.7          20
    ## 2 #1/2/95/2                7 Con7        27          42            19
    ## 3 #5/5/3/83/3-3            5 Con7        26          41.4          19
    ## # ... with 46 more rows, and 2 more variables: pups_born_alive <int>,
    ## #   pups_dead_birth <int>

# Filter

``` r
drop_na(litters_data, gd18_weight)
```

    ## # A tibble: 32 x 8
    ##   group litter_number gd0_weight gd18_weight gd_of_birth pups_born_alive
    ##   <chr> <chr>              <dbl>       <dbl>       <int>           <int>
    ## 1 Con7  #85                 19.7        34.7          20               3
    ## 2 Con7  #1/2/95/2           27          42            19               8
    ## 3 Con7  #5/5/3/83/3-3       26          41.4          19               6
    ## # ... with 29 more rows, and 2 more variables: pups_dead_birth <int>,
    ## #   pups_survive <int>

# Mutate

``` r
mutate(litters_data,
       wt_gain = gd18_weight - gd0_weight,
       group = str_to_lower(group))
```

    ## # A tibble: 49 x 9
    ##   group litter_number gd0_weight gd18_weight gd_of_birth pups_born_alive
    ##   <chr> <chr>              <dbl>       <dbl>       <int>           <int>
    ## 1 con7  #85                 19.7        34.7          20               3
    ## 2 con7  #1/2/95/2           27          42            19               8
    ## 3 con7  #5/5/3/83/3-3       26          41.4          19               6
    ## # ... with 46 more rows, and 3 more variables: pups_dead_birth <int>,
    ## #   pups_survive <int>, wt_gain <dbl>
…
``` r
litters_data = 
  read_csv("./data/FAS_litters.csv", col_types = "ccddiiii") %>%
  janitor::clean_names() %>%
  select(-pups_survive) %>%
  mutate(
    wt_gain = gd18_weight - gd0_weight,
    group = str_to_lower(group)) %>% 
  drop_na(wt_gain)

litters_data
```

    ## # A tibble: 31 x 8
    ##   group litter_number gd0_weight gd18_weight gd_of_birth pups_born_alive
    ##   <chr> <chr>              <dbl>       <dbl>       <int>           <int>
    ## 1 con7  #85                 19.7        34.7          20               3
    ## 2 con7  #1/2/95/2           27          42            19               8
    ## 3 con7  #5/5/3/83/3-3       26          41.4          19               6
    ## # ... with 28 more rows, and 2 more variables: pups_dead_birth <int>,
    ## #   wt_gain <dbl>
…
