…
pulse_tidy_data  #see baseline and following bdi
```

    ## # A tibble: 4,348 x 5
    ##   visit    id   age sex     bdi
    ##   <chr> <dbl> <dbl> <chr> <dbl>
    ## 1 00m   10003  48.0 male      7
    ## 2 01m   10003  48.0 male      1
    ## 3 06m   10003  48.0 male      2
    ## 4 12m   10003  48.0 male      0
    ## 5 00m   10015  72.5 male      6
    ## # ... with 4,343 more rows
…
